{
    "defaultEnv": {"ENV": "NODE_ENV"},
    "localhost": {
        "driver": "pg",
        "host": {"ENV": "SOCRATIVE_DB_HOST"},
        "user": {"ENV": "SOCRATIVE_DB_USERNAME"},
        "password": {"ENV": "SOCRATIVE_DB_PASSWORD"},
        "database": "socrative",
        "schema": "public"
    },
    "development": {
        "driver": "pg",
        "host": {"ENV": "SOCRATIVE_DB_HOST"},
        "user": {"ENV": "SOCRATIVE_DB_USERNAME"},
        "password": {"ENV": "SOCRATIVE_DB_PASSWORD"},
        "database": "socrative",
        "schema": "public"
    },
    "demo": {
        "driver": "pg",
        "host": {"ENV": "SOCRATIVE_DB_HOST"},
        "user": {"ENV": "SOCRATIVE_DB_USERNAME"},
        "password": {"ENV": "SOCRATIVE_DB_PASSWORD"},
        "database": "socrative",
        "schema": "public"
    },
    "staging": {
        "driver": "pg",
        "host": {"ENV": "SOCRATIVE_DB_HOST"},
        "user": {"ENV": "SOCRATIVE_DB_USERNAME"},
        "password": {"ENV": "SOCRATIVE_DB_PASSWORD"},
        "database": "socrative",
        "schema": "public"
    },
    "production": {
        "driver": "pg",
        "host": {"ENV": "SOCRATIVE_DB_HOST"},
        "user": {"ENV": "SOCRATIVE_DB_USERNAME"},
        "password": {"ENV": "SOCRATIVE_DB_PASSWORD"},
        "database": "socrative",
        "schema": "public"
    }
}