<svg class="launch-button-icon" viewBox="0 0 60 67.3">
	<path class="launch-button-icon-path" d="M25,57.7c0.4,1,0.9,2,1.5,3H8.7C3.9,60.7,0,56.8,0,52V8.7C0,3.9,3.9,0,8.7,0h35.5c4.8,0,8.7,3.9,8.7,8.7v24.7c-1-0.5-2-1-3-1.3V8.7c0-3.2-2.6-5.7-5.7-5.7H8.7C5.5,3,3,5.6,3,8.7V52c0,3.2,2.6,5.7,5.7,5.7H25z M12.8,36.7h16.5c-0.9,0.9-1.7,1.9-2.4,3H12.8c-0.8,0-1.5-0.7-1.5-1.5S12,36.7,12.8,36.7z M40.8,17.2c0,0.8-0.7,1.5-1.5,1.5H12.8c-0.8,0-1.5-0.7-1.5-1.5s0.7-1.5,1.5-1.5h26.5C40.1,15.7,40.8,16.4,40.8,17.2z M39.3,28.7H12.8c-0.8,0-1.5-0.7-1.5-1.5s0.7-1.5,1.5-1.5h26.5c0.8,0,1.5,0.7,1.5,1.5S40.1,28.7,39.3,28.7z M43.3,33.9c-9.2,0-16.7,7.5-16.7,16.7s7.5,16.7,16.7,16.7S60,59.8,60,50.6C60,41.3,52.5,33.9,43.3,33.9z M43.3,64.2c-7.5,0-13.7-6.1-13.7-13.7c0-7.5,6.1-13.7,13.7-13.7c7.5,0,13.7,6.1,13.7,13.7S50.9,64.2,43.3,64.2z M52,50.7c0,0.8-0.7,1.5-1.5,1.5h-1.3H45V57v0.7c0,0.8-0.7,1.5-1.5,1.5S42,58.5,42,57.7V57v-4.9h-5c-0.6,0-1.1-0.3-1.3-0.8c-0.1-0.2-0.2-0.4-0.2-0.7c0-0.2,0.1-0.5,0.2-0.6c0.2-0.5,0.8-0.8,1.4-0.8H42v-4.9c0-0.6,0.4-1.2,0.9-1.4c0.2-0.1,0.4-0.1,0.6-0.1s0.4,0,0.6,0.1c0.5,0.2,0.9,0.8,0.9,1.4v5h4.2h1.3C51.3,49.2,52,49.9,52,50.7z"/>
</svg>
