<svg class="launch-button-icon" viewBox="0 0 66.6 65.8">
    <path class="launch-button-icon-path" d="M24.2,32.3l7.8,7.8V1.5C32,0.7,32.7,0,33.5,0S35,0.7,35,1.5v38.9l8.1-8.1c0.6-0.6,1.5-0.6,2.1,0s0.6,1.5,0,2.1L34.8,44.8c-0.1,0.1-0.2,0.1-0.3,0.2c-0.3,0.3-0.6,0.4-1.1,0.4c-0.7,0-1.2-0.4-1.4-1l-10-10c-0.6-0.6-0.6-1.5,0-2.1S23.6,31.7,24.2,32.3z M59.8,23h-7.9H41.2v3h10.6h7.9c2.1,0,3.8,1.5,3.8,3.2v30.4c0,1.7-1.7,3.2-3.8,3.2h-53c-2.1,0-3.8-1.5-3.8-3.2V29.2c0-1.7,1.7-3.2,3.8-3.2h18.5v-3H6.8C3.1,23,0,25.7,0,29.2v30.4c0,3.5,3.1,6.2,6.8,6.2h53c3.7,0,6.8-2.7,6.8-6.2V29.2C66.6,25.7,63.5,23,59.8,23z"/>
</svg>
