<svg class="launch-button-icon" viewBox="0 0 61 66">
    <path class="launch-button-icon-path" d="M4,26.2L4,26.2v32.5c0,2,1.6,3.6,3.5,3.6h26.6c1.9,0,3.5-1.6,3.5-3.6V26.2c0-2-1.6-3.6-3.5-3.6H7.5C5.5,22.6,4,24.2,4,26.2L4,26.2L4,26.2L4,26.2z M1,26.2c0-3.6,2.9-6.6,6.5-6.6h26.6c3.6,0,6.5,2.9,6.5,6.6v32.5c0,3.6-2.9,6.6-6.5,6.6H7.5c-3.6,0-6.5-2.9-6.5-6.6V26.2L1,26.2L1,26.2L1,26.2z M10.6,42.4h19.9c0.8,0,1.5-0.7,1.5-1.5s-0.7-1.5-1.5-1.5H10.6c-0.8,0-1.5,0.7-1.5,1.5S9.7,42.4,10.6,42.4L10.6,42.4z M10.6,50.4h19.9c0.8,0,1.5-0.7,1.5-1.5s-0.7-1.5-1.5-1.5H10.6c-0.8,0-1.5,0.7-1.5,1.5S9.7,50.4,10.6,50.4L10.6,50.4z M10.6,34.4h19.9c0.8,0,1.5-0.7,1.5-1.5s-0.7-1.5-1.5-1.5H10.6c-0.8,0-1.5,0.7-1.5,1.5S9.7,34.4,10.6,34.4L10.6,34.4z M34.6,3.1c0,0,0.2,0,0.3,0c0.3,0,0.7,0,1.1,0.1c1.2,0.1,2.5,0.3,3.8,0.7c3.9,1,7.5,3,10.5,6c3,3,5,6.7,6,10.5c0.4,1.4,0.6,2.6,0.7,3.8c0,0.4,0.1,0.8,0.1,1.1c0,0.2,0,0.3,0,0.3c0,0.8,0.6,1.5,1.5,1.5c0.8,0,1.5-0.6,1.5-1.5c0-0.4,0-1-0.1-1.8c-0.1-1.3-0.4-2.8-0.8-4.3c-1.2-4.3-3.4-8.4-6.8-11.9C49,4.4,44.9,2.2,40.6,1c-1.5-0.4-3-0.7-4.3-0.8c-0.8-0.1-1.4-0.1-1.8-0.1c-0.8,0-1.5,0.7-1.5,1.5S33.8,3.1,34.6,3.1L34.6,3.1L34.6,3.1z M32.7,12.2c0.2,0,0.5,0.1,1,0.2c0.8,0.2,1.7,0.4,2.6,0.7c2.6,0.9,4.9,2.3,6.8,4.1s3.2,4.2,4.1,6.8c0.3,0.9,0.6,1.8,0.7,2.6c0.1,0.5,0.2,0.8,0.2,1c0.1,0.8,0.9,1.4,1.7,1.3c0.8-0.1,1.4-0.9,1.3-1.7c-0.1-0.9-0.4-2.4-1.1-4.2c-1.1-3-2.6-5.7-4.8-7.9s-4.9-3.8-7.9-4.8c-1.8-0.6-3.3-1-4.2-1.1c-0.8-0.1-1.6,0.5-1.7,1.3S31.9,12.1,32.7,12.2L32.7,12.2L32.7,12.2z"/>
</svg>
