{
    "config": {
        "adminService": {
            "auth": {
                "callback_url": "https://admin.socrative.com/googlelogincallback"
            }
        },
        "app": {
            "hostname": "b.socrative.com"
        },
        "cache": {
            "hosts": {
                "read": "prod-redis-002.2lhtey.0001.use1.cache.amazonaws.com",
                "write": "prod-redis-001.2lhtey.0001.use1.cache.amazonaws.com"
            }
        },
        "cors": {
            "allowedHost": "https://b.socrative.com"
        },
        "payment": {
            "url": "https://pmnt.socrative.com"
        },
        "pubnub": {
            "publishKey": "pub-c-4bcc5f0b-b75e-4489-8267-a0c1468986d1",
            "secretKey": "pub-c-4bcc5f0b-b75e-4489-8267-a0c1468986d1",
            "subscribeKey": "sub-c-6dcf3cd2-13e8-11e3-8f5a-02ee2ddab7fe"
        },
        "worker": {
            "host": "prodworkerqueue.2lhtey.0001.use1.cache.amazonaws.com"
        },
        "loginService": {
            "hostname": "login.socrative.com"
        },
        "google": {
            "oAuthRedirectURI": "https://teacher.socrative.com/v3/login/google"
        }
    }
}